    <svg
      width="108"
      height="106"
      viewBox="0 0 108 106"
      fill="none"
      xmlns="http://www.w3.org/2000/svg"
    >
      <rect width="108" height="105" fill="#FF3B30" fill-opacity="0.8" />
      <g transform="translate(0, 97)">
        <path d="M0 0L9 9H0V0Z" fill="white" />
        <path
          d="M108 0L117 9H99H81H63H45H27H9L18 0L27 9L36 0L45 9L54 0L63 9L72 0L81 9L90.5 0L99 9L108 0Z"
          fill="white"
        />
      </g>
    </svg>